%YAML 1.1
%TAG !u! tag:unity3d.com,2011:
--- !u!1 &1784668736376905765
GameObject:
  m_ObjectHideFlags: 0
  m_CorrespondingSourceObject: {fileID: 0}
  m_PrefabInstance: {fileID: 0}
  m_PrefabAsset: {fileID: 0}
  serializedVersion: 6
  m_Component:
  - component: {fileID: 4696899057870148876}
  - component: {fileID: 6891706981956954024}
  m_Layer: 0
  m_Name: Freezin
  m_TagString: Untagged
  m_Icon: {fileID: 0}
  m_NavMeshLayer: 0
  m_StaticEditorFlags: 0
  m_IsActive: 1
--- !u!4 &4696899057870148876
Transform:
  m_ObjectHideFlags: 0
  m_CorrespondingSourceObject: {fileID: 0}
  m_PrefabInstance: {fileID: 0}
  m_PrefabAsset: {fileID: 0}
  m_GameObject: {fileID: 1784668736376905765}
  m_LocalRotation: {x: 0, y: 0, z: 0, w: 1}
  m_LocalPosition: {x: 0, y: 0, z: 0}
  m_LocalScale: {x: 1, y: 1, z: 1}
  m_Children: []
  m_Father: {fileID: 0}
  m_RootOrder: 0
  m_LocalEulerAnglesHint: {x: 0, y: 0, z: 0}
--- !u!114 &6891706981956954024
MonoBehaviour:
  m_ObjectHideFlags: 0
  m_CorrespondingSourceObject: {fileID: 0}
  m_PrefabInstance: {fileID: 0}
  m_PrefabAsset: {fileID: 0}
  m_GameObject: {fileID: 1784668736376905765}
  m_Enabled: 1
  m_EditorHideFlags: 0
  m_Script: {fileID: 11500000, guid: 3875b6808398ddb438e211f3c5347d43, type: 3}
  m_Name: 
  m_EditorClassIdentifier: 
  _name: Freezin
  _description: Light ice attack
  _actionType: 1
  _actionAttribute: 4
  _cost: 5
  _actionPower: 10
  _sureHit: 0
  _accuracy: 95
  _critRate: 0
  _hits: 1
  _activateGuard: 0
  _targetMode: 0
