%YAML 1.1
%TAG !u! tag:unity3d.com,2011:
--- !u!1 &3386702500958048467
GameObject:
  m_ObjectHideFlags: 0
  m_CorrespondingSourceObject: {fileID: 0}
  m_PrefabInstance: {fileID: 0}
  m_PrefabAsset: {fileID: 0}
  serializedVersion: 6
  m_Component:
  - component: {fileID: 1084538704834117243}
  - component: {fileID: 7439290700201075142}
  m_Layer: 0
  m_Name: Shine
  m_TagString: Untagged
  m_Icon: {fileID: 0}
  m_NavMeshLayer: 0
  m_StaticEditorFlags: 0
  m_IsActive: 1
--- !u!4 &1084538704834117243
Transform:
  m_ObjectHideFlags: 0
  m_CorrespondingSourceObject: {fileID: 0}
  m_PrefabInstance: {fileID: 0}
  m_PrefabAsset: {fileID: 0}
  m_GameObject: {fileID: 3386702500958048467}
  m_LocalRotation: {x: 0, y: 0, z: 0, w: 1}
  m_LocalPosition: {x: 0, y: 0, z: 0}
  m_LocalScale: {x: 1, y: 1, z: 1}
  m_Children: []
  m_Father: {fileID: 0}
  m_RootOrder: 0
  m_LocalEulerAnglesHint: {x: 0, y: 0, z: 0}
--- !u!114 &7439290700201075142
MonoBehaviour:
  m_ObjectHideFlags: 0
  m_CorrespondingSourceObject: {fileID: 0}
  m_PrefabInstance: {fileID: 0}
  m_PrefabAsset: {fileID: 0}
  m_GameObject: {fileID: 3386702500958048467}
  m_Enabled: 1
  m_EditorHideFlags: 0
  m_Script: {fileID: 11500000, guid: c0a288aa754d61e46b3085fc75a783b2, type: 3}
  m_Name: 
  m_EditorClassIdentifier: 
  _name: Shine
  _description: Medium magic attack that ignores magic defenses
  _actionType: 1
  _actionAttribute: 7
  _cost: 25
  _actionPower: 25
  _sureHit: 0
  _accuracy: 90
  _critRate: 1
  _hits: 1
  bonusRate: 100
  damageRatio: 0.5
  _activateGuard: 0
  _activateTaunt: 0
  _breakGuard: 0
  _targetMode: 0
