%YAML 1.1
%TAG !u! tag:unity3d.com,2011:
--- !u!1 &8345387829060974517
GameObject:
  m_ObjectHideFlags: 0
  m_CorrespondingSourceObject: {fileID: 0}
  m_PrefabInstance: {fileID: 0}
  m_PrefabAsset: {fileID: 0}
  serializedVersion: 6
  m_Component:
  - component: {fileID: 3042762157055148700}
  - component: {fileID: 3796796432353996856}
  m_Layer: 0
  m_Name: ShockinW3
  m_TagString: Untagged
  m_Icon: {fileID: 0}
  m_NavMeshLayer: 0
  m_StaticEditorFlags: 0
  m_IsActive: 1
--- !u!4 &3042762157055148700
Transform:
  m_ObjectHideFlags: 0
  m_CorrespondingSourceObject: {fileID: 0}
  m_PrefabInstance: {fileID: 0}
  m_PrefabAsset: {fileID: 0}
  m_GameObject: {fileID: 8345387829060974517}
  m_LocalRotation: {x: 0, y: 0, z: 0, w: 1}
  m_LocalPosition: {x: 0, y: 0, z: 0}
  m_LocalScale: {x: 1, y: 1, z: 1}
  m_Children: []
  m_Father: {fileID: 0}
  m_RootOrder: 0
  m_LocalEulerAnglesHint: {x: 0, y: 0, z: 0}
--- !u!114 &3796796432353996856
MonoBehaviour:
  m_ObjectHideFlags: 0
  m_CorrespondingSourceObject: {fileID: 0}
  m_PrefabInstance: {fileID: 0}
  m_PrefabAsset: {fileID: 0}
  m_GameObject: {fileID: 8345387829060974517}
  m_Enabled: 1
  m_EditorHideFlags: 0
  m_Script: {fileID: 11500000, guid: 3875b6808398ddb438e211f3c5347d43, type: 3}
  m_Name: 
  m_EditorClassIdentifier: 
  _name: Shockinalla
  _description: Medium elec attack on all foes
  _actionType: 1
  _actionAttribute: 5
  _cost: 30
  _actionPower: 30
  _sureHit: 0
  _accuracy: 85
  _critRate: 0
  _hits: 1
  damageRatio: 0.25
  _activateGuard: 0
  _targetMode: 2
