%YAML 1.1
%TAG !u! tag:unity3d.com,2011:
--- !u!1 &5425424808108828276
GameObject:
  m_ObjectHideFlags: 0
  m_CorrespondingSourceObject: {fileID: 0}
  m_PrefabInstance: {fileID: 0}
  m_PrefabAsset: {fileID: 0}
  serializedVersion: 6
  m_Component:
  - component: {fileID: 1342122245927015261}
  - component: {fileID: 876745215225438713}
  m_Layer: 0
  m_Name: ShockinW2
  m_TagString: Untagged
  m_Icon: {fileID: 0}
  m_NavMeshLayer: 0
  m_StaticEditorFlags: 0
  m_IsActive: 1
--- !u!4 &1342122245927015261
Transform:
  m_ObjectHideFlags: 0
  m_CorrespondingSourceObject: {fileID: 0}
  m_PrefabInstance: {fileID: 0}
  m_PrefabAsset: {fileID: 0}
  m_GameObject: {fileID: 5425424808108828276}
  m_LocalRotation: {x: 0, y: 0, z: 0, w: 1}
  m_LocalPosition: {x: 0, y: 0, z: 0}
  m_LocalScale: {x: 1, y: 1, z: 1}
  m_Children: []
  m_Father: {fileID: 0}
  m_RootOrder: 0
  m_LocalEulerAnglesHint: {x: 0, y: 0, z: 0}
--- !u!114 &876745215225438713
MonoBehaviour:
  m_ObjectHideFlags: 0
  m_CorrespondingSourceObject: {fileID: 0}
  m_PrefabInstance: {fileID: 0}
  m_PrefabAsset: {fileID: 0}
  m_GameObject: {fileID: 5425424808108828276}
  m_Enabled: 1
  m_EditorHideFlags: 0
  m_Script: {fileID: 11500000, guid: 3875b6808398ddb438e211f3c5347d43, type: 3}
  m_Name: 
  m_EditorClassIdentifier: 
  _name: Shockinall
  _description: Light electric attack on all enemies
  _actionType: 1
  _actionAttribute: 5
  _cost: 15
  _actionPower: 10
  _sureHit: 0
  _accuracy: 85
  _critRate: 0
  _hits: 1
  damageRatio: 0.25
  _activateGuard: 0
  _targetMode: 2
