%YAML 1.1
%TAG !u! tag:unity3d.com,2011:
--- !u!1 &3987341179562636340
GameObject:
  m_ObjectHideFlags: 0
  m_CorrespondingSourceObject: {fileID: 0}
  m_PrefabInstance: {fileID: 0}
  m_PrefabAsset: {fileID: 0}
  serializedVersion: 6
  m_Component:
  - component: {fileID: 3987341179562636346}
  - component: {fileID: 3987341179562636341}
  m_Layer: 0
  m_Name: Death Bolt
  m_TagString: Untagged
  m_Icon: {fileID: 0}
  m_NavMeshLayer: 0
  m_StaticEditorFlags: 0
  m_IsActive: 1
--- !u!4 &3987341179562636346
Transform:
  m_ObjectHideFlags: 0
  m_CorrespondingSourceObject: {fileID: 0}
  m_PrefabInstance: {fileID: 0}
  m_PrefabAsset: {fileID: 0}
  m_GameObject: {fileID: 3987341179562636340}
  m_LocalRotation: {x: 0, y: 0, z: 0, w: 1}
  m_LocalPosition: {x: 0, y: 0, z: 0}
  m_LocalScale: {x: 1, y: 1, z: 1}
  m_Children: []
  m_Father: {fileID: 0}
  m_RootOrder: 0
  m_LocalEulerAnglesHint: {x: 0, y: 0, z: 0}
--- !u!114 &3987341179562636341
MonoBehaviour:
  m_ObjectHideFlags: 0
  m_CorrespondingSourceObject: {fileID: 0}
  m_PrefabInstance: {fileID: 0}
  m_PrefabAsset: {fileID: 0}
  m_GameObject: {fileID: 3987341179562636340}
  m_Enabled: 1
  m_EditorHideFlags: 0
  m_Script: {fileID: 11500000, guid: 0a506225b8e20414d9d2bc608d097345, type: 3}
  m_Name: 
  m_EditorClassIdentifier: 
  _name: Death Bolt
  _description: Elec skill with low chance of death
  _actionType: 3
  _actionAttribute: 5
  _cost: 25
  _actionPower: 0
  _sureHit: 0
  _accuracy: 20
  _critRate: 1
  _hits: 1
  bonusRate: 100
  damageRatio: 0.25
  _activateGuard: 0
  _activateTaunt: 0
  _breakGuard: 0
  _targetMode: 0
  inflict: 3
