%YAML 1.1
%TAG !u! tag:unity3d.com,2011:
--- !u!1 &7343874756772517720
GameObject:
  m_ObjectHideFlags: 0
  m_CorrespondingSourceObject: {fileID: 0}
  m_PrefabInstance: {fileID: 0}
  m_PrefabAsset: {fileID: 0}
  serializedVersion: 6
  m_Component:
  - component: {fileID: 6906732034147237953}
  - component: {fileID: 8960134692643172350}
  m_Layer: 0
  m_Name: Absorb Magic
  m_TagString: Untagged
  m_Icon: {fileID: 0}
  m_NavMeshLayer: 0
  m_StaticEditorFlags: 0
  m_IsActive: 1
--- !u!4 &6906732034147237953
Transform:
  m_ObjectHideFlags: 0
  m_CorrespondingSourceObject: {fileID: 0}
  m_PrefabInstance: {fileID: 0}
  m_PrefabAsset: {fileID: 0}
  m_GameObject: {fileID: 7343874756772517720}
  m_LocalRotation: {x: 0, y: 0, z: 0, w: 1}
  m_LocalPosition: {x: 0, y: 0, z: 0}
  m_LocalScale: {x: 1, y: 1, z: 1}
  m_Children: []
  m_Father: {fileID: 0}
  m_RootOrder: 0
  m_LocalEulerAnglesHint: {x: 0, y: 0, z: 0}
--- !u!114 &8960134692643172350
MonoBehaviour:
  m_ObjectHideFlags: 0
  m_CorrespondingSourceObject: {fileID: 0}
  m_PrefabInstance: {fileID: 0}
  m_PrefabAsset: {fileID: 0}
  m_GameObject: {fileID: 7343874756772517720}
  m_Enabled: 1
  m_EditorHideFlags: 0
  m_Script: {fileID: 11500000, guid: a59e528e307f5fe45810251b93b9f83b, type: 3}
  m_Name: 
  m_EditorClassIdentifier: 
  _name: Absorb Magic
  _description: Absorb magic damage as HP
  _abilityType: 11
  _affinities:
    PHYSICAL: -5
    MAGIC: 10
    HEAL: 0
    CUT: 0
    BASH: 0
    PIERCE: 0
    FIRE: 0
    ICE: 0
    ELEC: 5
    WIND: 0
    EARTH: 0
    DARK: 0
  _triggerBased: 0
  _triggerRate: 50
  _attachedAction: {fileID: 0}
  absorbRate: 0.5
  absorbType: 2
  absorbAttribute: 6
