%YAML 1.1
%TAG !u! tag:unity3d.com,2011:
--- !u!1 &7520944524398021080
GameObject:
  m_ObjectHideFlags: 0
  m_CorrespondingSourceObject: {fileID: 0}
  m_PrefabInstance: {fileID: 0}
  m_PrefabAsset: {fileID: 0}
  serializedVersion: 6
  m_Component:
  - component: {fileID: 7520944524398021082}
  - component: {fileID: 7520944524398021083}
  - component: {fileID: 7520944524398021085}
  m_Layer: 0
  m_Name: ENEMY_Samplemon
  m_TagString: Untagged
  m_Icon: {fileID: 0}
  m_NavMeshLayer: 0
  m_StaticEditorFlags: 0
  m_IsActive: 1
--- !u!4 &7520944524398021082
Transform:
  m_ObjectHideFlags: 0
  m_CorrespondingSourceObject: {fileID: 0}
  m_PrefabInstance: {fileID: 0}
  m_PrefabAsset: {fileID: 0}
  m_GameObject: {fileID: 7520944524398021080}
  m_LocalRotation: {x: 0, y: 0, z: 0, w: 1}
  m_LocalPosition: {x: 0, y: 0, z: 0}
  m_LocalScale: {x: 1, y: 1, z: 1}
  m_Children: []
  m_Father: {fileID: 0}
  m_RootOrder: 0
  m_LocalEulerAnglesHint: {x: 0, y: 0, z: 0}
--- !u!212 &7520944524398021083
SpriteRenderer:
  m_ObjectHideFlags: 0
  m_CorrespondingSourceObject: {fileID: 0}
  m_PrefabInstance: {fileID: 0}
  m_PrefabAsset: {fileID: 0}
  m_GameObject: {fileID: 7520944524398021080}
  m_Enabled: 1
  m_CastShadows: 0
  m_ReceiveShadows: 0
  m_DynamicOccludee: 1
  m_MotionVectors: 1
  m_LightProbeUsage: 1
  m_ReflectionProbeUsage: 1
  m_RayTracingMode: 0
  m_RayTraceProcedural: 0
  m_RenderingLayerMask: 1
  m_RendererPriority: 0
  m_Materials:
  - {fileID: 10754, guid: 0000000000000000f000000000000000, type: 0}
  m_StaticBatchInfo:
    firstSubMesh: 0
    subMeshCount: 0
  m_StaticBatchRoot: {fileID: 0}
  m_ProbeAnchor: {fileID: 0}
  m_LightProbeVolumeOverride: {fileID: 0}
  m_ScaleInLightmap: 1
  m_ReceiveGI: 1
  m_PreserveUVs: 0
  m_IgnoreNormalsForChartDetection: 0
  m_ImportantGI: 0
  m_StitchLightmapSeams: 0
  m_SelectedEditorRenderState: 0
  m_MinimumChartSize: 4
  m_AutoUVMaxDistance: 0.5
  m_AutoUVMaxAngle: 89
  m_LightmapParameters: {fileID: 0}
  m_SortingLayerID: 0
  m_SortingLayer: 0
  m_SortingOrder: 0
  m_Sprite: {fileID: 21300000, guid: 88803740d0dc4664396778b06abef557, type: 3}
  m_Color: {r: 1, g: 1, b: 1, a: 1}
  m_FlipX: 0
  m_FlipY: 0
  m_DrawMode: 0
  m_Size: {x: 1, y: 1}
  m_AdaptiveModeThreshold: 0.5
  m_SpriteTileMode: 0
  m_WasSpriteAssigned: 1
  m_MaskInteraction: 0
  m_SpriteSortPoint: 0
--- !u!114 &7520944524398021085
MonoBehaviour:
  m_ObjectHideFlags: 0
  m_CorrespondingSourceObject: {fileID: 0}
  m_PrefabInstance: {fileID: 0}
  m_PrefabAsset: {fileID: 0}
  m_GameObject: {fileID: 7520944524398021080}
  m_Enabled: 1
  m_EditorHideFlags: 0
  m_Script: {fileID: 11500000, guid: a63255bc79d15944cb845d45e2ec5604, type: 3}
  m_Name: 
  m_EditorClassIdentifier: 
  _name: Samplemon
  icon: {fileID: 21300000, guid: 00021d90ca50efe4484b72dcbf5d8d7f, type: 3}
  _profile: {fileID: 21300000, guid: 13c4555061f77d34ea830d677fb3e64e, type: 3}
  baseAttack: {fileID: 0}
  _baseAttackType: 0
  _status: 0
  statusResistance: 0
  baseHitPoints: 40
  baseSkillPoints: 40
  baseStrength: 40
  baseDefense: 40
  baseMagic: 40
  baseAgility: 40
  baseDexterity: 40
  affinityStrength: 0
  affinityDefense: 0
  affinityMagic: 0
  affinityAgility: 0
  affinityDexterity: 0
  _level: 1
  fighterResistances:
    CUT: 0
    BASH: 0
    PIERCE: 0
    FIRE: 2
    ICE: 2
    ELEC: 2
    WIND: 0
    EARTH: 0
    DARK: 0
  fighterAffinities:
    PHYSICAL: 0
    MAGIC: 0
    HEAL: 0
    CUT: 0
    BASH: 0
    PIERCE: 0
    FIRE: 0
    ICE: 0
    ELEC: 0
    WIND: 0
    EARTH: 0
    DARK: 0
  damage: 0
  usable_SP: 0
  stat_Mods:
    mod_PhysAttack: 0
    mod_MagicAttack: 0
    mod_PhysDefense: 0
    mod_MagicDefense: 0
    mod_Speed: 0
    mod_Evasion: 0
    mod_Accuracy: 0
    mod_CriticalRate: 0
    counter:
      P_ATK: 0
      P_DEF: 0
      MAG_A: 0
      MAG_D: 0
      SPD: 0
      EVA: 0
      ACC: 0
      CRIT: 0
  guarding: 0
  _skillList: []
  _itemDrop:
    itemDrops:
    - {fileID: 0}
    - {fileID: 0}
    - {fileID: 0}
    dropRate: 000000000000000000000000
  sprite: {fileID: 21300000, guid: 88803740d0dc4664396778b06abef557, type: 3}
