%YAML 1.1
%TAG !u! tag:unity3d.com,2011:
--- !u!1 &2493531098354013431
GameObject:
  m_ObjectHideFlags: 0
  m_CorrespondingSourceObject: {fileID: 0}
  m_PrefabInstance: {fileID: 0}
  m_PrefabAsset: {fileID: 0}
  serializedVersion: 6
  m_Component:
  - component: {fileID: 565525405211482610}
  - component: {fileID: 7895504899789911798}
  m_Layer: 0
  m_Name: Phys Boost1
  m_TagString: Untagged
  m_Icon: {fileID: 0}
  m_NavMeshLayer: 0
  m_StaticEditorFlags: 0
  m_IsActive: 1
--- !u!4 &565525405211482610
Transform:
  m_ObjectHideFlags: 0
  m_CorrespondingSourceObject: {fileID: 0}
  m_PrefabInstance: {fileID: 0}
  m_PrefabAsset: {fileID: 0}
  m_GameObject: {fileID: 2493531098354013431}
  m_LocalRotation: {x: 0, y: 0, z: 0, w: 1}
  m_LocalPosition: {x: 0, y: 0, z: 0}
  m_LocalScale: {x: 1, y: 1, z: 1}
  m_Children: []
  m_Father: {fileID: 0}
  m_RootOrder: 0
  m_LocalEulerAnglesHint: {x: 0, y: 0, z: 0}
--- !u!114 &7895504899789911798
MonoBehaviour:
  m_ObjectHideFlags: 0
  m_CorrespondingSourceObject: {fileID: 0}
  m_PrefabInstance: {fileID: 0}
  m_PrefabAsset: {fileID: 0}
  m_GameObject: {fileID: 2493531098354013431}
  m_Enabled: 1
  m_EditorHideFlags: 0
  m_Script: {fileID: 11500000, guid: a59e528e307f5fe45810251b93b9f83b, type: 3}
  m_Name: 
  m_EditorClassIdentifier: 
  _name: Phys Boost
  _description: Amplify user's physical attack power by 10%
  _abilityType: 0
  _affinities:
    PHYSICAL: 10
    MAGIC: 0
    HEAL: 0
    CUT: 0
    BASH: 0
    PIERCE: 0
    FIRE: 0
    ICE: 0
    ELEC: 0
