%YAML 1.1
%TAG !u! tag:unity3d.com,2011:
--- !u!1 &6158556270700870819
GameObject:
  m_ObjectHideFlags: 0
  m_CorrespondingSourceObject: {fileID: 0}
  m_PrefabInstance: {fileID: 0}
  m_PrefabAsset: {fileID: 0}
  serializedVersion: 6
  m_Component:
  - component: {fileID: 8085224957697601958}
  - component: {fileID: 1909293975273184930}
  m_Layer: 0
  m_Name: Fire Boost2
  m_TagString: Untagged
  m_Icon: {fileID: 0}
  m_NavMeshLayer: 0
  m_StaticEditorFlags: 0
  m_IsActive: 1
--- !u!4 &8085224957697601958
Transform:
  m_ObjectHideFlags: 0
  m_CorrespondingSourceObject: {fileID: 0}
  m_PrefabInstance: {fileID: 0}
  m_PrefabAsset: {fileID: 0}
  m_GameObject: {fileID: 6158556270700870819}
  m_LocalRotation: {x: 0, y: 0, z: 0, w: 1}
  m_LocalPosition: {x: 0, y: 0, z: 0}
  m_LocalScale: {x: 1, y: 1, z: 1}
  m_Children: []
  m_Father: {fileID: 0}
  m_RootOrder: 0
  m_LocalEulerAnglesHint: {x: 0, y: 0, z: 0}
--- !u!114 &1909293975273184930
MonoBehaviour:
  m_ObjectHideFlags: 0
  m_CorrespondingSourceObject: {fileID: 0}
  m_PrefabInstance: {fileID: 0}
  m_PrefabAsset: {fileID: 0}
  m_GameObject: {fileID: 6158556270700870819}
  m_Enabled: 1
  m_EditorHideFlags: 0
  m_Script: {fileID: 11500000, guid: a59e528e307f5fe45810251b93b9f83b, type: 3}
  m_Name: 
  m_EditorClassIdentifier: 
  _name: Fire Amp
  _description: Amplify user's fire attack power by 30%
  _abilityType: 0
  _affinities:
    PHYSICAL: 0
    MAGIC: 0
    HEAL: 0
    CUT: 0
    BASH: 0
    PIERCE: 0
    FIRE: 30
    ICE: 0
    ELEC: 0
