%YAML 1.1
%TAG !u! tag:unity3d.com,2011:
--- !u!1 &3032125529501035824
GameObject:
  m_ObjectHideFlags: 0
  m_CorrespondingSourceObject: {fileID: 0}
  m_PrefabInstance: {fileID: 0}
  m_PrefabAsset: {fileID: 0}
  serializedVersion: 6
  m_Component:
  - component: {fileID: 6371851605554516719}
  - component: {fileID: 2213786060374878395}
  m_Layer: 0
  m_Name: Lancet
  m_TagString: Untagged
  m_Icon: {fileID: 0}
  m_NavMeshLayer: 0
  m_StaticEditorFlags: 0
  m_IsActive: 1
--- !u!4 &6371851605554516719
Transform:
  m_ObjectHideFlags: 0
  m_CorrespondingSourceObject: {fileID: 0}
  m_PrefabInstance: {fileID: 0}
  m_PrefabAsset: {fileID: 0}
  m_GameObject: {fileID: 3032125529501035824}
  m_LocalRotation: {x: 0, y: 0, z: 0, w: 1}
  m_LocalPosition: {x: 0, y: 0, z: 0}
  m_LocalScale: {x: 1, y: 1, z: 1}
  m_Children: []
  m_Father: {fileID: 0}
  m_RootOrder: 0
  m_LocalEulerAnglesHint: {x: 0, y: 0, z: 0}
--- !u!114 &2213786060374878395
MonoBehaviour:
  m_ObjectHideFlags: 0
  m_CorrespondingSourceObject: {fileID: 0}
  m_PrefabInstance: {fileID: 0}
  m_PrefabAsset: {fileID: 0}
  m_GameObject: {fileID: 3032125529501035824}
  m_Enabled: 1
  m_EditorHideFlags: 0
  m_Script: {fileID: 11500000, guid: 48e72f069aaa2604798c222e833cf9ff, type: 3}
  m_Name: 
  m_EditorClassIdentifier: 
  _name: Lancet
  _description: This skill seems incomplete
  _actionType: 0
  _actionAttribute: 2
  _cost: 7
  _actionPower: 10
  _sureHit: 0
  _accuracy: 80
  _critRate: 10
  _hits: 1
  bonusRate: 100
  damageRatio: 0.25
  _activateGuard: 0
  _activateTaunt: 0
  _breakGuard: 0
  _targetMode: 0
  hpAbsorb: 0.5
  spDrain: 0.25
