%YAML 1.1
%TAG !u! tag:unity3d.com,2011:
--- !u!1 &5905019196834763266
GameObject:
  m_ObjectHideFlags: 0
  m_CorrespondingSourceObject: {fileID: 0}
  m_PrefabInstance: {fileID: 0}
  m_PrefabAsset: {fileID: 0}
  serializedVersion: 6
  m_Component:
  - component: {fileID: 8070488345080659114}
  - component: {fileID: 1743041684291248919}
  m_Layer: 0
  m_Name: VoidSlashW2
  m_TagString: Untagged
  m_Icon: {fileID: 0}
  m_NavMeshLayer: 0
  m_StaticEditorFlags: 0
  m_IsActive: 1
--- !u!4 &8070488345080659114
Transform:
  m_ObjectHideFlags: 0
  m_CorrespondingSourceObject: {fileID: 0}
  m_PrefabInstance: {fileID: 0}
  m_PrefabAsset: {fileID: 0}
  m_GameObject: {fileID: 5905019196834763266}
  m_LocalRotation: {x: 0, y: 0, z: 0, w: 1}
  m_LocalPosition: {x: 0, y: 0, z: 0}
  m_LocalScale: {x: 1, y: 1, z: 1}
  m_Children: []
  m_Father: {fileID: 0}
  m_RootOrder: 0
  m_LocalEulerAnglesHint: {x: 0, y: 0, z: 0}
--- !u!114 &1743041684291248919
MonoBehaviour:
  m_ObjectHideFlags: 0
  m_CorrespondingSourceObject: {fileID: 0}
  m_PrefabInstance: {fileID: 0}
  m_PrefabAsset: {fileID: 0}
  m_GameObject: {fileID: 5905019196834763266}
  m_Enabled: 1
  m_EditorHideFlags: 0
  m_Script: {fileID: 11500000, guid: c0a288aa754d61e46b3085fc75a783b2, type: 3}
  m_Name: 
  m_EditorClassIdentifier: 
  _name: Void Slasher
  _description: Medium phys attack that ignores defenses on all foes
  _actionType: 0
  _actionAttribute: 0
  _cost: 45
  _actionPower: 20
  _sureHit: 0
  _accuracy: 80
  _critRate: 10
  _hits: 1
  damageRatio: 0.5
  _activateGuard: 0
  _targetMode: 2
