%YAML 1.1
%TAG !u! tag:unity3d.com,2011:
--- !u!1 &8264067951734920992
GameObject:
  m_ObjectHideFlags: 0
  m_CorrespondingSourceObject: {fileID: 0}
  m_PrefabInstance: {fileID: 0}
  m_PrefabAsset: {fileID: 0}
  serializedVersion: 6
  m_Component:
  - component: {fileID: 8264067951734920994}
  - component: {fileID: 8264067951734920995}
  m_Layer: 0
  m_Name: ProtoSpirit_Burn
  m_TagString: Untagged
  m_Icon: {fileID: 0}
  m_NavMeshLayer: 0
  m_StaticEditorFlags: 0
  m_IsActive: 1
--- !u!4 &8264067951734920994
Transform:
  m_ObjectHideFlags: 0
  m_CorrespondingSourceObject: {fileID: 0}
  m_PrefabInstance: {fileID: 0}
  m_PrefabAsset: {fileID: 0}
  m_GameObject: {fileID: 8264067951734920992}
  m_LocalRotation: {x: 0, y: 0, z: 0, w: 1}
  m_LocalPosition: {x: 236.79337, y: 348.22025, z: 53.177795}
  m_LocalScale: {x: 1, y: 1, z: 1}
  m_Children: []
  m_Father: {fileID: 0}
  m_RootOrder: 0
  m_LocalEulerAnglesHint: {x: 0, y: 0, z: 0}
--- !u!114 &8264067951734920995
MonoBehaviour:
  m_ObjectHideFlags: 0
  m_CorrespondingSourceObject: {fileID: 0}
  m_PrefabInstance: {fileID: 0}
  m_PrefabAsset: {fileID: 0}
  m_GameObject: {fileID: 8264067951734920992}
  m_Enabled: 1
  m_EditorHideFlags: 0
  m_Script: {fileID: 11500000, guid: 44e9c5da747d5ba498608c6661266e97, type: 3}
  m_Name: 
  m_EditorClassIdentifier: 
  _name: Burnerell
  icon: {fileID: 21300000, guid: 536af151fb0641643a2c94b5db11d427, type: 3}
  _profile: {fileID: 21300000, guid: a86ef015cc213c641b33f53e5e439753, type: 3}
  baseAttack: {fileID: 0}
  _baseAttackType: 0
  _status: 0
  statusResistance: 0
  baseHitPoints: 60
  baseSkillPoints: 30
  baseStrength: 70
  baseDefense: 55
  baseMagic: 40
  baseAgility: 35
  baseDexterity: 60
  affinityStrength: 20
  affinityDefense: 15
  affinityMagic: 5
  affinityAgility: 5
  affinityDexterity: 5
  _level: 1
  fighterResistances:
    CUT: 0
    BASH: 0
    PIERCE: 0
    FIRE: 3
    ICE: 2
    ELEC: 0
    WIND: 0
    EARTH: 0
    DARK: 0
  fighterAffinities:
    PHYSICAL: 15
    MAGIC: 0
    HEAL: 0
    CUT: 0
    BASH: 0
    PIERCE: 0
    FIRE: 5
    ICE: 0
    ELEC: 0
    WIND: 0
    EARTH: 0
    DARK: 0
  damage: 0
  usable_SP: 0
  stat_Mods:
    mod_PhysAttack: 0
    mod_MagicAttack: 0
    mod_PhysDefense: 0
    mod_MagicDefense: 0
    mod_Speed: 0
    mod_Evasion: 0
    mod_Accuracy: 0
    mod_CriticalRate: 0
    counter:
      P_ATK: 0
      P_DEF: 0
      MAG_A: 0
      MAG_D: 0
      SPD: 0
      EVA: 0
      ACC: 0
      CRIT: 0
  guarding: 0
  _skillList:
  - {fileID: 5258495927281921686, guid: 69c25b9d47c46ca4f8711e8eaf21ee36, type: 3}
  - {fileID: 567275367675978292, guid: d3afd0e4e88ec18458e07bbc0fed4cdd, type: 3}
  - {fileID: 8988465386553944790, guid: 1076479188617db4584eff1476b8e5ad, type: 3}
  - {fileID: 126498107945842732, guid: ebaa7535ab8b5b9459f067dd41626b80, type: 3}
  _faceplate: {fileID: 21300000, guid: 4a1ef20c36fcbfe4b97be2b98bb6d26a, type: 3}
  _learnableSkills: []
  _reserveSkills: []
  charm: {fileID: 0}
  _bond: 25
