%YAML 1.1
%TAG !u! tag:unity3d.com,2011:
--- !u!1 &3914538666369517963
GameObject:
  m_ObjectHideFlags: 0
  m_CorrespondingSourceObject: {fileID: 0}
  m_PrefabInstance: {fileID: 0}
  m_PrefabAsset: {fileID: 0}
  serializedVersion: 6
  m_Component:
  - component: {fileID: 3914538666369517957}
  - component: {fileID: 3914538666369517962}
  m_Layer: 0
  m_Name: Magcon
  m_TagString: Untagged
  m_Icon: {fileID: 0}
  m_NavMeshLayer: 0
  m_StaticEditorFlags: 0
  m_IsActive: 1
--- !u!4 &3914538666369517957
Transform:
  m_ObjectHideFlags: 0
  m_CorrespondingSourceObject: {fileID: 0}
  m_PrefabInstance: {fileID: 0}
  m_PrefabAsset: {fileID: 0}
  m_GameObject: {fileID: 3914538666369517963}
  m_LocalRotation: {x: 0, y: 0, z: 0, w: 1}
  m_LocalPosition: {x: 0, y: 0, z: 0}
  m_LocalScale: {x: 1, y: 1, z: 1}
  m_Children: []
  m_Father: {fileID: 0}
  m_RootOrder: 0
  m_LocalEulerAnglesHint: {x: 0, y: 0, z: 0}
--- !u!114 &3914538666369517962
MonoBehaviour:
  m_ObjectHideFlags: 0
  m_CorrespondingSourceObject: {fileID: 0}
  m_PrefabInstance: {fileID: 0}
  m_PrefabAsset: {fileID: 0}
  m_GameObject: {fileID: 3914538666369517963}
  m_Enabled: 1
  m_EditorHideFlags: 0
  m_Script: {fileID: 11500000, guid: d3e4c1f841576c34bb9365cac850b031, type: 3}
  m_Name: 
  m_EditorClassIdentifier: 
  _name: Magcon
  _description: Lowers magic attack on foe for 3 turns
  _actionType: 3
  _actionAttribute: 7
  _cost: 8
  _actionPower: 0
  _sureHit: 1
  _accuracy: 0
  _critRate: 0
  _hits: 0
  bonusRate: 0
  damageRatio: 0
  _activateGuard: 0
  _activateTaunt: 0
  _breakGuard: 0
  _targetMode: 0
  physAtk: 0
  physDef: 0
  magAtk: 0
  magDef: 0
  speed: 0
  evasion: 0
  accuracy: 0
  critical: 0
  physAtkDown: 0
  physDefDown: 0
  magAtkDown: 1
  magDefDown: 0
  speedDown: 0
  evasionDown: 0
  accuracyDown: 0
  criticalDown: 0
  extraTurns: 0
