%YAML 1.1
%TAG !u! tag:unity3d.com,2011:
--- !u!1 &3863948499893812146
GameObject:
  m_ObjectHideFlags: 0
  m_CorrespondingSourceObject: {fileID: 0}
  m_PrefabInstance: {fileID: 0}
  m_PrefabAsset: {fileID: 0}
  serializedVersion: 6
  m_Component:
  - component: {fileID: 7815248094057516699}
  - component: {fileID: 8286527169982692415}
  m_Layer: 0
  m_Name: Martillo3
  m_TagString: Untagged
  m_Icon: {fileID: 0}
  m_NavMeshLayer: 0
  m_StaticEditorFlags: 0
  m_IsActive: 1
--- !u!4 &7815248094057516699
Transform:
  m_ObjectHideFlags: 0
  m_CorrespondingSourceObject: {fileID: 0}
  m_PrefabInstance: {fileID: 0}
  m_PrefabAsset: {fileID: 0}
  m_GameObject: {fileID: 3863948499893812146}
  m_LocalRotation: {x: 0, y: 0, z: 0, w: 1}
  m_LocalPosition: {x: 0, y: 0, z: 0}
  m_LocalScale: {x: 1, y: 1, z: 1}
  m_Children: []
  m_Father: {fileID: 0}
  m_RootOrder: 0
  m_LocalEulerAnglesHint: {x: 0, y: 0, z: 0}
--- !u!114 &8286527169982692415
MonoBehaviour:
  m_ObjectHideFlags: 0
  m_CorrespondingSourceObject: {fileID: 0}
  m_PrefabInstance: {fileID: 0}
  m_PrefabAsset: {fileID: 0}
  m_GameObject: {fileID: 3863948499893812146}
  m_Enabled: 1
  m_EditorHideFlags: 0
  m_Script: {fileID: 11500000, guid: 3875b6808398ddb438e211f3c5347d43, type: 3}
  m_Name: 
  m_EditorClassIdentifier: 
  _name: Martillo Crash
  _description: Heavy bash attack on foe
  _actionType: 0
  _actionAttribute: 1
  _cost: 21
  _actionPower: 50
  _sureHit: 0
  _accuracy: 80
  _critRate: 15
  _hits: 1
  _activateGuard: 0
  _targetMode: 0
