%YAML 1.1
%TAG !u! tag:unity3d.com,2011:
--- !u!1 &6459833226861472442
GameObject:
  m_ObjectHideFlags: 0
  m_CorrespondingSourceObject: {fileID: 0}
  m_PrefabInstance: {fileID: 0}
  m_PrefabAsset: {fileID: 0}
  serializedVersion: 6
  m_Component:
  - component: {fileID: 3471537063886791483}
  - component: {fileID: 7113049756787234537}
  m_Layer: 0
  m_Name: Auto Guarki
  m_TagString: Untagged
  m_Icon: {fileID: 0}
  m_NavMeshLayer: 0
  m_StaticEditorFlags: 0
  m_IsActive: 1
--- !u!4 &3471537063886791483
Transform:
  m_ObjectHideFlags: 0
  m_CorrespondingSourceObject: {fileID: 0}
  m_PrefabInstance: {fileID: 0}
  m_PrefabAsset: {fileID: 0}
  m_GameObject: {fileID: 6459833226861472442}
  m_LocalRotation: {x: 0, y: 0, z: 0, w: 1}
  m_LocalPosition: {x: 192.89713, y: 295.96268, z: 7.15625}
  m_LocalScale: {x: 1, y: 1, z: 1}
  m_Children: []
  m_Father: {fileID: 0}
  m_RootOrder: 0
  m_LocalEulerAnglesHint: {x: 0, y: 0, z: 0}
--- !u!114 &7113049756787234537
MonoBehaviour:
  m_ObjectHideFlags: 0
  m_CorrespondingSourceObject: {fileID: 0}
  m_PrefabInstance: {fileID: 0}
  m_PrefabAsset: {fileID: 0}
  m_GameObject: {fileID: 6459833226861472442}
  m_Enabled: 1
  m_EditorHideFlags: 0
  m_Script: {fileID: 11500000, guid: a59e528e307f5fe45810251b93b9f83b, type: 3}
  m_Name: 
  m_EditorClassIdentifier: 
  _name: Auto Guarki
  _description: Cast guarki on user at start of battle
  _abilityType: 8
  _affinities:
    PHYSICAL: 0
    MAGIC: 0
    HEAL: 0
    CUT: 0
    BASH: 0
    PIERCE: 0
    FIRE: 0
    ICE: 0
    ELEC: 0
    WIND: 0
    EARTH: 0
    DARK: 0
  _triggerBased: 0
  _triggerRate: 50
  _attachedAction: {fileID: 3514963293783281570, guid: a8409e3aba249714bbdff3279f3c54d1,
    type: 3}
  absorbRate: 0
  absorbType: 0
  absorbAttribute: 7
