%YAML 1.1
%TAG !u! tag:unity3d.com,2011:
--- !u!1 &871952917161578388
GameObject:
  m_ObjectHideFlags: 0
  m_CorrespondingSourceObject: {fileID: 0}
  m_PrefabInstance: {fileID: 0}
  m_PrefabAsset: {fileID: 0}
  serializedVersion: 6
  m_Component:
  - component: {fileID: 871952917161578386}
  - component: {fileID: 871952917161578389}
  m_Layer: 0
  m_Name: GuarkiW2
  m_TagString: Untagged
  m_Icon: {fileID: 2974397684917235467, guid: 0000000000000000d000000000000000, type: 0}
  m_NavMeshLayer: 0
  m_StaticEditorFlags: 0
  m_IsActive: 1
--- !u!4 &871952917161578386
Transform:
  m_ObjectHideFlags: 0
  m_CorrespondingSourceObject: {fileID: 0}
  m_PrefabInstance: {fileID: 0}
  m_PrefabAsset: {fileID: 0}
  m_GameObject: {fileID: 871952917161578388}
  m_LocalRotation: {x: 0, y: 0, z: 0, w: 1}
  m_LocalPosition: {x: -1.47, y: -2.28, z: 0}
  m_LocalScale: {x: 1, y: 1, z: 1}
  m_Children: []
  m_Father: {fileID: 0}
  m_RootOrder: 0
  m_LocalEulerAnglesHint: {x: 0, y: 0, z: 0}
--- !u!114 &871952917161578389
MonoBehaviour:
  m_ObjectHideFlags: 0
  m_CorrespondingSourceObject: {fileID: 0}
  m_PrefabInstance: {fileID: 0}
  m_PrefabAsset: {fileID: 0}
  m_GameObject: {fileID: 871952917161578388}
  m_Enabled: 1
  m_EditorHideFlags: 0
  m_Script: {fileID: 11500000, guid: d3e4c1f841576c34bb9365cac850b031, type: 3}
  m_Name: 
  m_EditorClassIdentifier: 
  _name: Guarkinall
  _description: Raise physical defense on allies for 3 turns
  _actionType: 3
  _actionAttribute: 7
  _cost: 25
  _actionPower: 50
  _sureHit: 1
  _accuracy: 50
  _critRate: 1
  _hits: 1
  bonusRate: 100
  damageRatio: 0.25
  _activateGuard: 0
  _activateTaunt: 0
  _breakGuard: 0
  _targetMode: 3
  physAtk: 0
  physDef: 1
  magAtk: 0
  magDef: 0
  speed: 0
  evasion: 0
  accuracy: 0
  critical: 0
  extraTurns: 0
