%YAML 1.1
%TAG !u! tag:unity3d.com,2011:
--- !u!1 &4861866474291544599
GameObject:
  m_ObjectHideFlags: 0
  m_CorrespondingSourceObject: {fileID: 0}
  m_PrefabInstance: {fileID: 0}
  m_PrefabAsset: {fileID: 0}
  serializedVersion: 6
  m_Component:
  - component: {fileID: 4861866474291544593}
  - component: {fileID: 4861866474291544598}
  m_Layer: 0
  m_Name: Maxim2
  m_TagString: Untagged
  m_Icon: {fileID: 2974397684917235467, guid: 0000000000000000d000000000000000, type: 0}
  m_NavMeshLayer: 0
  m_StaticEditorFlags: 0
  m_IsActive: 1
--- !u!4 &4861866474291544593
Transform:
  m_ObjectHideFlags: 0
  m_CorrespondingSourceObject: {fileID: 0}
  m_PrefabInstance: {fileID: 0}
  m_PrefabAsset: {fileID: 0}
  m_GameObject: {fileID: 4861866474291544599}
  m_LocalRotation: {x: 0, y: 0, z: 0, w: 1}
  m_LocalPosition: {x: -1.47, y: -2.28, z: 0}
  m_LocalScale: {x: 1, y: 1, z: 1}
  m_Children: []
  m_Father: {fileID: 0}
  m_RootOrder: 0
  m_LocalEulerAnglesHint: {x: 0, y: 0, z: 0}
--- !u!114 &4861866474291544598
MonoBehaviour:
  m_ObjectHideFlags: 0
  m_CorrespondingSourceObject: {fileID: 0}
  m_PrefabInstance: {fileID: 0}
  m_PrefabAsset: {fileID: 0}
  m_GameObject: {fileID: 4861866474291544599}
  m_Enabled: 1
  m_EditorHideFlags: 0
  m_Script: {fileID: 11500000, guid: d3e4c1f841576c34bb9365cac850b031, type: 3}
  m_Name: 
  m_EditorClassIdentifier: 
  _name: Maximize
  _description: Raise all stats on 1 ally for 5 turns
  _actionType: 3
  _actionAttribute: 7
  _cost: 80
  _actionPower: 50
  _sureHit: 1
  _accuracy: 50
  _critRate: 1
  _hits: 1
  bonusRate: 100
  damageRatio: 0.25
  _activateGuard: 0
  _activateTaunt: 0
  _breakGuard: 0
  _targetMode: 1
  physAtk: 1
  physDef: 1
  magAtk: 1
  magDef: 1
  speed: 1
  evasion: 1
  accuracy: 1
  critical: 1
  extraTurns: 2
